{
    "width" : "12",
    "height": "10",
    "boxCount": "3",
    "board": "0, 0, 0, 0, 2, 4, 0, 0, 0, 2, 0, 0, 0, 3, 0, 0, 2, 0, 0, 1, 0, 2, 0, 0, 2, 2, 2, 0, 3, 0, 0, 0, 0, 2, 0, 0, 0, 0, 2, 0, 0, 0, 2, 2, 2, 0, 0, 2, 2, 2, 2, 0, 0, 0, 2, 0, 0, 0, 0, 2, 4, 0, 0, 0, 0, 2, 2, 0, 3, 0, 0, 2, 4, 0, 0, 0, 0, 2, 0, 0, 0, 0, 2, 0, 2, 2, 2, 0, 0, 2, 0, 0, 0, 0, 2, 0, 0, 0, 2, 0, 0, 0, 0, 0, 2, 2, 0, 0, 0, 0, 2, 0, 0, 0, 0, 0, 2, 2, 0, 0"
}